{
  "name": "esp8266-configurator",
  "keywords": "WIFI, Update, ESP8266, OTA",
  "description": "Library to check for a configuration for a device on a server.",
  "frameworks": "arduino",
  "platforms": "esp8266",
  "category":"Communication",
  "version":"1.0.0-alpha.1",
  "author":"Maleficarum",
  "maintainer":"Maleficarum < o@maleficarum.mx >"
}
